<svg xmlns="http://www.w3.org/2000/svg" class="icon icon-tabler icon-tabler-article" width="44" height="44" viewBox="0 0 24 24" stroke-width="1.5" stroke="#ff9300" fill="none" stroke-linecap="round" stroke-linejoin="round">
  <path stroke="none" d="M0 0h24v24H0z" fill="none"/>
  <path d="M3 4m0 2a2 2 0 0 1 2 -2h14a2 2 0 0 1 2 2v12a2 2 0 0 1 -2 2h-14a2 2 0 0 1 -2 -2z" />
  <path d="M7 8h10" />
  <path d="M7 12h10" />
  <path d="M7 16h10" />
</svg>